{
  "type": "minecraft:crafting_shaped",
  "pattern": [
    "#S#",
    "NBN",
    "#S#"
  ],
  "key": {
    "#": {
      "item": "minecraft:leather"
    },
    "S": {
      "item": "minecraft:shulker_shell"
    },
    "N": {
      "item": "minecraft:nether_star"
    },
    "B": {
      "item": "raut:medium_backpack"
    }
  },
  "result": {
    "item": "raut:large_backpack",
    "count": 1
  }
}