{
  "type": "minecraft:crafting_shaped",
  "pattern": [
    "#N#",
    " / ",
    " / "
  ],
  "key": {
    "#": {
      "tag": "raut:aquilorite_gem"
    },
    "N": {
      "item": "minecraft:nether_star"
    },
    "/": {
      "item": "minecraft:blaze_rod"
    }
  },
  "result": {
    "item": "raut:staff_of_time",
    "count": 1
  }
}