{
  "type": "minecraft:crafting_shaped",
  "pattern": [
    "###",
    "# #",
    "# #"
  ],
  "key": {
    "#": {
      "tag": "c:steel_ingots"
    }
  },
  "result": {
    "item": "raut:steel_leggings",
    "count": 1
  }
}